"SPIDERMAN"	"ALPHA"
"SPIDERMAN"	"BETA"
"SPIDERMAN"	"CHARLIE"
"SPIDERMAN"	"DELTA"
"SPIDERMAN"	"ECHO"
"SUPERMAN"	"ALPHA"
"SUPERMAN"	"CHARLIE"
"HULK"	"ALPHA"
"HULK"	"BETA"
"HULK"	"DELTA"
"IRONMAN"	"BETA"
"IRONMAN"	"ECHO"
"GREEN LANTURN"	"ALPHA"
"BATMAN"	"CHARLIE"
"BATMAN"	"DELTA"
"DEADPOOL"	"ECHO"
"FLASH"	"ALPHA"
"FLASH"	"FOXTROT"
"THOR"	"BETA"
"CAPTAIN AMERICA"	"FOXTROT"
